sim/traffic_light.vcd
$date
	Mon Jan  5 23:17:27 2026
$end
$version
	Icarus Verilog
$end
$timescale
	1ps
$end
$scope module tb_traffic_light_controller $end
$var wire 1 ! NS_yellow $end
$var wire 1 " NS_red $end
$var wire 1 # NS_green $end
$var wire 1 $ EW_yellow $end
$var wire 1 % EW_red $end
$var wire 1 & EW_green $end
$var reg 1 ' clk $end
$var reg 1 ( rst_n $end
$scope module dut $end
$var wire 1 ' clk $end
$var wire 1 ( rst_n $end
$var parameter 32 ) ALLRED_TIME $end
$var parameter 32 * GREEN_TIME $end
$var parameter 32 + YELLOW_TIME $end
$var reg 1 & EW_green $end
$var reg 1 % EW_red $end
$var reg 1 $ EW_yellow $end
$var reg 1 # NS_green $end
$var reg 1 " NS_red $end
$var reg 1 ! NS_yellow $end
$var reg 3 , next_state [2:0] $end
$var reg 3 - state [2:0] $end
$var integer 32 . timer [31:0] $end
$upscope $end
$upscope $end
$enddefinitions $end
$comment Show the parameter values. $end
$dumpall
b11 +
b1010 *
b10 )
$end
#0
$dumpvars
b0 .
bx -
bx ,
0(
0'
x&
x%
x$
x#
x"
x!
$end
#5000
0&
0$
1%
1#
0!
0"
b1 ,
b0 -
1'
#10000
0'
#15000
1'
#20000
0'
1(
#25000
1!
1%
0#
b11 .
b1 -
1'
#30000
0'
#35000
b10 .
1'
#40000
0'
#45000
b1 .
1'
#50000
0'
#55000
b10 ,
b0 .
1'
#60000
0'
#65000
1"
1%
0!
b10 .
b10 -
1'
#70000
0'
#75000
b1 .
1'
#80000
0'
#85000
b11 ,
b0 .
1'
#90000
0'
#95000
1&
0%
1"
b1010 .
b11 -
1'
#100000
0'
#105000
b1001 .
1'
#110000
0'
#115000
b1000 .
1'
#120000
0'
#125000
b111 .
1'
#130000
0'
#135000
b110 .
1'
#140000
0'
#145000
b101 .
1'
#150000
0'
#155000
b100 .
1'
#160000
0'
#165000
b11 .
1'
#170000
0'
#175000
b10 .
1'
#180000
0'
#185000
b1 .
1'
#190000
0'
#195000
b100 ,
b0 .
1'
#200000
0'
#205000
1$
0&
1"
b11 .
b100 -
1'
#210000
0'
#215000
b10 .
1'
#220000
0'
#225000
b1 .
1'
#230000
0'
#235000
b101 ,
b0 .
1'
#240000
0'
#245000
1%
0$
1"
b10 .
b101 -
1'
#250000
0'
#255000
b1 .
1'
#260000
0'
#265000
b0 ,
b0 .
1'
#270000
0'
#275000
1#
1%
0"
b1010 .
b0 -
1'
#280000
0'
#285000
b1001 .
1'
#290000
0'
#295000
b1000 .
1'
#300000
0'
#305000
b111 .
1'
#310000
0'
#315000
b110 .
1'
#320000
0'
#325000
b101 .
1'
#330000
0'
#335000
b100 .
1'
#340000
0'
#345000
b11 .
1'
#350000
0'
#355000
b10 .
1'
#360000
0'
#365000
b1 .
1'
#370000
0'
#375000
b1 ,
b0 .
1'
#380000
0'
#385000
1!
1%
0#
b11 .
b1 -
1'
#390000
0'
#395000
b10 .
1'
#400000
0'
#405000
b1 .
1'
#410000
0'
#415000
b10 ,
b0 .
1'
#420000
0'
#425000
1"
1%
0!
b10 .
b10 -
1'
#430000
0'
#435000
b1 .
1'
#440000
0'
#445000
b11 ,
b0 .
1'
#450000
0'
#455000
1&
0%
1"
b1010 .
b11 -
1'
#460000
0'
#465000
b1001 .
1'
#470000
0'
#475000
b1000 .
1'
#480000
0'
#485000
b111 .
1'
#490000
0'
#495000
b110 .
1'
#500000
0'
#505000
b101 .
1'
#510000
0'
#515000
b100 .
1'
#520000
0'
#525000
b11 .
1'
#530000
0'
#535000
b10 .
1'
#540000
0'
#545000
b1 .
1'
#550000
0'
#555000
b100 ,
b0 .
1'
#560000
0'
#565000
1$
0&
1"
b11 .
b100 -
1'
#570000
0'
#575000
b10 .
1'
#580000
0'
#585000
b1 .
1'
#590000
0'
#595000
b101 ,
b0 .
1'
#600000
0'
#605000
1%
0$
1"
b10 .
b101 -
1'
#610000
0'
#615000
b1 .
1'
#620000
0'
#625000
b0 ,
b0 .
1'
#630000
0'
#635000
1#
1%
0"
b1010 .
b0 -
1'
#640000
0'
#645000
b1001 .
1'
#650000
0'
#655000
b1000 .
1'
#660000
0'
#665000
b111 .
1'
#670000
0'
#675000
b110 .
1'
#680000
0'
#685000
b101 .
1'
#690000
0'
#695000
b100 .
1'
#700000
0'
#705000
b11 .
1'
#710000
0'
#715000
b10 .
1'
#720000
0'
#725000
b1 .
1'
#730000
0'
#735000
b1 ,
b0 .
1'
#740000
0'
#745000
1!
1%
0#
b11 .
b1 -
1'
#750000
0'
#755000
b10 .
1'
#760000
0'
#765000
b1 .
1'
#770000
0'
#775000
b10 ,
b0 .
1'
#780000
0'
#785000
1"
1%
0!
b10 .
b10 -
1'
#790000
0'
#795000
b1 .
1'
#800000
0'
#805000
b11 ,
b0 .
1'
#810000
0'
#815000
1&
0%
1"
b1010 .
b11 -
1'
#820000
0'
#825000
b1001 .
1'
#830000
0'
#835000
b1000 .
1'
#840000
0'
#845000
b111 .
1'
#850000
0'
#855000
b110 .
1'
#860000
0'
#865000
b101 .
1'
#870000
0'
#875000
b100 .
1'
#880000
0'
#885000
b11 .
1'
#890000
0'
#895000
b10 .
1'
#900000
0'
#905000
b1 .
1'
#910000
0'
#915000
b100 ,
b0 .
1'
#920000
0'
#925000
1$
0&
1"
b11 .
b100 -
1'
#930000
0'
#935000
b10 .
1'
#940000
0'
#945000
b1 .
1'
#950000
0'
#955000
b101 ,
b0 .
1'
#960000
0'
#965000
1%
0$
1"
b10 .
b101 -
1'
#970000
0'
#975000
b1 .
1'
#980000
0'
#985000
b0 ,
b0 .
1'
#990000
0'
#995000
1#
1%
0"
b1010 .
b0 -
1'
#1000000
0'
#1005000
b1001 .
1'
#1010000
0'
#1015000
b1000 .
1'
